STAT 147 | HW
…
there is a slightly positive association with the data

3. Using the newly merged data set, create a scatter plot and fit a trend line for each group. What is the association for each group?

## <list_of<
##   tbl_df<
##     id   : integer
##     x    : double
##     y    : double
##     group: integer
##   >
## >[3]>
## [[1]]
## # A tibble: 100 x 4
##       id     x       y group
##    <int> <dbl>   <dbl> <int>
##  1     3 1.30   -6.58      1
##  2    11 3.12  -12.2       1
##  3    12 3.31   -5.42      1
##  4    17 0.893   4.67      1
##  5    18 2.46    1.09      1
##  6    20 1.44   -7.16      1
##  7    27 0.719   5.06      1
##  8    29 0.237  -0.495     1
##  9    35 1.92   -5.93      1
## 10    38 0.880  -0.224     1
## #  with 90 more rows
## 
## [[2]]
## # A tibble: 100 x 4
##       id     x     y group
##    <int> <dbl> <dbl> <int>
##  1     1  3.84 20.4      2
##  2     2  4.29 14.3      2
##  3     4  3.32 25.8      2
##  4    10  2.93 17.1      2
##  5    13  5.54 20.2      2
##  6    14  4.46 20.2      2
##  7    16  5.47 19.1      2
##  8    21  4.98 15.5      2
##  9    22  4.16 12.3      2
## 10    23  3.30  9.90     2
## #  with 90 more rows
## 
## [[3]]
## # A tibble: 100 x 4
##       id     x       y group
##    <int> <dbl>   <dbl> <int>
##  1     5  5.96  13.8       3
##  2     6  6.33   2.43      3
##  3     7  4.14   4.97      3
##  4     8  5.56  10.0       3
##  5     9  5.68  -0.796     3
##  6    15  6.67   1.38      3
##  7    19  5.86   6.82      3
##  8    24  5.22   9.59      3
##  9    25  7.52  16.5       3
## 10    26  5.28 -12.0       3
## #  with 90 more rows
…
